bugprone-macro-parentheses
bugprone-suspicious-missing-comma
misc-suspicious-missing-comma
readability-redundant-preprocessor
-Wbuiltin-macro-redefined
-Wmisleading-indentation
-Wtraditional
-Wunused-macros
C4002
C4067
C4668
C4789
preprocessorErrorDirective
MissingIncludeFile
ReservedNames
UseCorrectInclude
106
1960
436
491
517
544
553
555
556
677
686
688
723
960
961
M16-0-1
M16-0-5
M16-0-7
M16-1-1
M16-1-2
M19.1
M19.11
M19.14
M19.9
M2012-20.1
M2012-20.10
M2012-20.14
M2012-20.6
M2012-20.9
T002

